//		아이템 정보		//


*이름		"윙 부츠"
*Name		"Wing Boots"
*코드		"DB114"

///////////////	공통사항		 ////////////

*내구력		75 90
*무게		22
*가격		63000

///////////////	원소		/////////////

*생체		2 4
*불		2 4
*냉기		2 4
*번개		2 4
*독		2 4

///////////////	공격성능		/////////////
// 추가요인	최소	최대	

*공격력		
*사정거리		
*공격속도		
*명중력		
*크리티컬		

//////////////	방어성능		/////////////
// 추가요인

*흡수력		1.8 2.199
*방어력		64 90
*블럭율		

//////////////	이동성능		/////////////
// 추가요인

*이동속도	3.1 3.5

//////////////	저장공간		/////////////
// 소켓공간할당

*보유공간		

//////////////	특수능력		/////////////
// 추가요인


*생명력재생	
*기력재생
*근력재생
*생명력추가
*기력추가		
*근력추가
*마법기술숙련도		

//////////////	요구특성		/////////////
// 사용제한 요구치

*레벨		70
*힘		90
*정신력		
*재능		
*민첩성		86
*건강		

/////////////	회복약		 ////////////
// 추가요인	최소	최대

*생명력상승
*기력상승		
*근력상승

//////////////	캐릭터특성	/////////////
// 캐릭터별 특화성능
**특화랜덤 Knight Atalanta Priestess Magician Mechanician Fighter Pikeman Archer
// Rogue Pilgrim Prayer Shaman//

**흡수력	0.4	0.799
**이동속도	0.4	0.799

*연결파일        "name\db114.zhoon"