//		아이템 정보		//


*이름		"헬파이어 사이드"
*Name		"Hellfire Scythe"
*코드		"WP121"
*유니크         2
//*유니크색상	B	G	R   	투명도	점멸시간(반비례)
*유니크색상	255	0	200	0	9

///////////////	공통사항		 ////////////

*내구력		70 70
*무게		50
*가격		1800000

///////////////	원소		/////////////

*생체		
*대자연		
*불		
*냉기		
*번개		
*독		
*물		
*바람		

///////////////	공격성능		/////////////
// 추가요인	최소	최대	

*공격력		58 58	98 98
*사정거리	
*공격속도	8
*명중력		250 250
*크리티컬	25

//////////////	방어성능		/////////////
// 추가요인

*흡수력		
*방어력		
*블럭율		12 12

//////////////	신발성능		/////////////
// 추가요인

*이동속도		

//////////////	저장공간		/////////////
// 소켓공간할당

*보유공간		

//////////////	특수능력		/////////////
// 추가요인

*생명력재생	
*기력재생	
*근력재생	
*생명력추가	50	50
*기력추가	50	50
*근력추가	50	50
*마법기술숙련도	

//////////////	요구특성		/////////////
// 사용제한 요구치

*레벨		100
*힘		
*정신력		
*재능		
*민첩성		
*건강		

/////////////	회복약		 ////////////
// 추가요인	최소	최대

*생명력상승	
*기력상승	
*근력상승	

//////////////	캐릭터특성	/////////////
// 캐릭터별 특화성능

//**특화 

//**공격력	6	6
//**명중력	1
//**크리티컬	2

*연결파일        "name\_Uo_Hellfire Scythe.zhoon"
